{
  "project_info": {
    "project_number": "156879203041",
    "firebase_url": "https://mynews-3fb5f.firebaseio.com",
    "project_id": "mynews-3fb5f",
    "storage_bucket": "mynews-3fb5f.appspot.com"
  },
  "client": [
    {
      "client_info": {
        "mobilesdk_app_id": "1:156879203041:android:83a56008c1d25c22",
        "android_client_info": {
          "package_name": "com.stts.mynews"
        }
      },
      "oauth_client": [
        {
          "client_id": "156879203041-ep81tr0vs3k36762mkfcc1dsa90p1445.apps.googleusercontent.com",
          "client_type": 1,
          "android_info": {
            "package_name": "com.stts.mynews",
            "certificate_hash": "1295dc70af550d0aaab0cabb3693c5f497953447"
          }
        },
        {
          "client_id": "156879203041-ebapk22lfan3vrqlhqvvd5sfdv38h03q.apps.googleusercontent.com",
          "client_type": 3
        }
      ],
      "api_key": [
        {
          "current_key": "AIzaSyCQ2Q4sZi5Q6h09m8ANRui9MzqMmtXNmyo"
        }
      ],
      "services": {
        "analytics_service": {
          "status": 1
        },
        "appinvite_service": {
          "status": 2,
          "other_platform_oauth_client": [
            {
              "client_id": "156879203041-ebapk22lfan3vrqlhqvvd5sfdv38h03q.apps.googleusercontent.com",
              "client_type": 3
            }
          ]
        },
        "ads_service": {
          "status": 2
        }
      }
    }
  ],
  "configuration_version": "1"
}